%YAML 1.1
%TAG !u! tag:unity3d.com,2011:
--- !u!114 &11400000
MonoBehaviour:
  m_ObjectHideFlags: 0
  m_CorrespondingSourceObject: {fileID: 0}
  m_PrefabInternal: {fileID: 0}
  m_GameObject: {fileID: 0}
  m_Enabled: 1
  m_EditorHideFlags: 0
  m_Script: {fileID: 11500000, guid: f76fd6e9d1cb6ad439c9a7c2ab9c44d2, type: 3}
  m_Name: CrabData
  m_EditorClassIdentifier: 
  _entityName: Crab
  _horizontalSpeed: 10
  _terrainPadding: 2.7
  _gameObject: {fileID: 1323515605771302, guid: a8496d982a8ae214bac4ddd415f6e020,
    type: 2}
  _xAxisRotationSpeed: 1
  _estationary: 0
  _damagePoints: 1
