%YAML 1.1
%TAG !u! tag:unity3d.com,2011:
--- !u!114 &11400000
MonoBehaviour:
  m_ObjectHideFlags: 0
  m_CorrespondingSourceObject: {fileID: 0}
  m_PrefabInternal: {fileID: 0}
  m_GameObject: {fileID: 0}
  m_Enabled: 1
  m_EditorHideFlags: 0
  m_Script: {fileID: 11500000, guid: f76fd6e9d1cb6ad439c9a7c2ab9c44d2, type: 3}
  m_Name: ParasolData
  m_EditorClassIdentifier: 
  _entityName: Parasol
  _horizontalSpeed: 0
  _terrainPadding: 3.8
  _xAxisRotationSpeed: 0
  _gameObject: {fileID: 1179771517857588, guid: d84547226bdfa0041ae691edfe8fb3d0,
    type: 2}
  _estationary: 1
  _damagePoints: 1
